{
  "entries": {
    "tap": {
      "homebrew/cask": {
        "revision": "b6d0a53258ac99c0b6c265e125be0b1039ed87f8"
      }
    },
    "brew": {
      "vercel-cli": {
        "version": "33.4.1",
        "bottle": {
          "rebuild": 0,
          "root_url": "https://ghcr.io/v2/homebrew/core",
          "files": {
            "arm64_sonoma": {
              "cellar": ":any_skip_relocation",
              "url": "https://ghcr.io/v2/homebrew/core/vercel-cli/blobs/sha256:69b789b0e8c1d632aa61c51ca2f0b446eee08d3abcb41c401968ff4ed66190fc",
              "sha256": "69b789b0e8c1d632aa61c51ca2f0b446eee08d3abcb41c401968ff4ed66190fc"
            },
            "arm64_ventura": {
              "cellar": ":any_skip_relocation",
              "url": "https://ghcr.io/v2/homebrew/core/vercel-cli/blobs/sha256:69b789b0e8c1d632aa61c51ca2f0b446eee08d3abcb41c401968ff4ed66190fc",
              "sha256": "69b789b0e8c1d632aa61c51ca2f0b446eee08d3abcb41c401968ff4ed66190fc"
            },
            "arm64_monterey": {
              "cellar": ":any_skip_relocation",
              "url": "https://ghcr.io/v2/homebrew/core/vercel-cli/blobs/sha256:69b789b0e8c1d632aa61c51ca2f0b446eee08d3abcb41c401968ff4ed66190fc",
              "sha256": "69b789b0e8c1d632aa61c51ca2f0b446eee08d3abcb41c401968ff4ed66190fc"
            },
            "sonoma": {
              "cellar": ":any_skip_relocation",
              "url": "https://ghcr.io/v2/homebrew/core/vercel-cli/blobs/sha256:79ae4a4b8fd4a90a8a3c281ae4b8879191b248da42d1f5cf655c97c6e06b92cd",
              "sha256": "79ae4a4b8fd4a90a8a3c281ae4b8879191b248da42d1f5cf655c97c6e06b92cd"
            },
            "ventura": {
              "cellar": ":any_skip_relocation",
              "url": "https://ghcr.io/v2/homebrew/core/vercel-cli/blobs/sha256:79ae4a4b8fd4a90a8a3c281ae4b8879191b248da42d1f5cf655c97c6e06b92cd",
              "sha256": "79ae4a4b8fd4a90a8a3c281ae4b8879191b248da42d1f5cf655c97c6e06b92cd"
            },
            "monterey": {
              "cellar": ":any_skip_relocation",
              "url": "https://ghcr.io/v2/homebrew/core/vercel-cli/blobs/sha256:79ae4a4b8fd4a90a8a3c281ae4b8879191b248da42d1f5cf655c97c6e06b92cd",
              "sha256": "79ae4a4b8fd4a90a8a3c281ae4b8879191b248da42d1f5cf655c97c6e06b92cd"
            },
            "x86_64_linux": {
              "cellar": ":any_skip_relocation",
              "url": "https://ghcr.io/v2/homebrew/core/vercel-cli/blobs/sha256:3213b5f2e67b783e28f5b80f90151633d9d9e75e78585e2bee8297cff12f453e",
              "sha256": "3213b5f2e67b783e28f5b80f90151633d9d9e75e78585e2bee8297cff12f453e"
            }
          }
        }
      },
      "gh": {
        "version": "2.43.1",
        "bottle": {
          "rebuild": 0,
          "root_url": "https://ghcr.io/v2/homebrew/core",
          "files": {
            "arm64_sonoma": {
              "cellar": ":any_skip_relocation",
              "url": "https://ghcr.io/v2/homebrew/core/gh/blobs/sha256:5a5a2c52d9238ff8c0164c336dbcbe6def5afc4ea8a514af9217a92ce9b97931",
              "sha256": "5a5a2c52d9238ff8c0164c336dbcbe6def5afc4ea8a514af9217a92ce9b97931"
            },
            "arm64_ventura": {
              "cellar": ":any_skip_relocation",
              "url": "https://ghcr.io/v2/homebrew/core/gh/blobs/sha256:4080f143569cca30b4e3c49c1571d0dd70e88f048c84c12877663cb4bc35d6c1",
              "sha256": "4080f143569cca30b4e3c49c1571d0dd70e88f048c84c12877663cb4bc35d6c1"
            },
            "arm64_monterey": {
              "cellar": ":any_skip_relocation",
              "url": "https://ghcr.io/v2/homebrew/core/gh/blobs/sha256:fe4173fae83d89185481cd2c1e58da9498feae9d347d6538acbb97871505e3d7",
              "sha256": "fe4173fae83d89185481cd2c1e58da9498feae9d347d6538acbb97871505e3d7"
            },
            "sonoma": {
              "cellar": ":any_skip_relocation",
              "url": "https://ghcr.io/v2/homebrew/core/gh/blobs/sha256:64b72adadef26518516512b5cc0b7ab39a1bf01b6a0a5a30bbbf5afbb556dea1",
              "sha256": "64b72adadef26518516512b5cc0b7ab39a1bf01b6a0a5a30bbbf5afbb556dea1"
            },
            "ventura": {
              "cellar": ":any_skip_relocation",
              "url": "https://ghcr.io/v2/homebrew/core/gh/blobs/sha256:048ea9fa7aecd2fcae9930e8630d4e0db82570f5d9eb3aeb7f3879b3a01db10b",
              "sha256": "048ea9fa7aecd2fcae9930e8630d4e0db82570f5d9eb3aeb7f3879b3a01db10b"
            },
            "monterey": {
              "cellar": ":any_skip_relocation",
              "url": "https://ghcr.io/v2/homebrew/core/gh/blobs/sha256:3f8b6bdccb125ae6d287eacd7b13c6f71da64e539251eed88fe968932125d5a2",
              "sha256": "3f8b6bdccb125ae6d287eacd7b13c6f71da64e539251eed88fe968932125d5a2"
            },
            "x86_64_linux": {
              "cellar": ":any_skip_relocation",
              "url": "https://ghcr.io/v2/homebrew/core/gh/blobs/sha256:ca7f124a273cae2e820a4ef58f7c26e60c684f52fb239aafff88a0a8868e7734",
              "sha256": "ca7f124a273cae2e820a4ef58f7c26e60c684f52fb239aafff88a0a8868e7734"
            }
          }
        }
      }
    }
  },
  "system": {
    "macos": {
      "ventura": {
        "HOMEBREW_VERSION": "4.1.12",
        "HOMEBREW_PREFIX": "/opt/homebrew",
        "Homebrew/homebrew-core": "api",
        "CLT": "14.3.1.0.1.1683849156",
        "Xcode": "15.0",
        "macOS": "13.5.2"
      }
    },
    "linux": {
      "Ubuntu 22.04.3 LTS (jammy)": {
        "HOMEBREW_VERSION": "4.2.7",
        "HOMEBREW_PREFIX": "/home/linuxbrew/.linuxbrew",
        "Homebrew/homebrew-core": "api",
        "GCC": "11.4.0"
      }
    }
  }
}
